Lecture 11
…
nrc <- read_rds("nrc.rds")
tweets

## # A tibble: 35,219 x 8
##    source id_str text  created_at          retweet_count in_reply_to_use
##    <chr>   <dbl> <chr> <dttm>                      <dbl>            <dbl>
##  1 Twitt 6.97e9 "Fro 2009-12-23 17:38:18            28               NA
##  2 Twitt 6.31e9 "Tru 2009-12-03 19:39:09            33               NA
##  3 Twitt 6.09e9 "Wis 2009-11-26 19:55:38            13               NA
##  4 Twitt 5.78e9 "Don 2009-11-16 21:06:10             5               NA
##  5 Twitt 5.36e9 "--W 2009-11-02 14:57:56             7               NA
##  6 Twitt 5.20e9 "--F 2009-10-27 15:31:48             4               NA
##  7 Twitt 5.07e9 "Hea 2009-10-22 13:57:04             2               NA
##  8 Twitt 4.86e9 "Wat 2009-10-14 14:13:17             4               NA
##  9 Twitt 4.63e9 "- R 2009-10-05 14:37:38             1               NA
## 10 Twitt 4.47e9 "\"A 2009-09-29 15:28:23            23               NA
## #  with 35,209 more rows, and 2 more variables: favorite_count <dbl>,
## #   is_retweet <lgl>
…
Creating a dataset to analyze two sources: iPhone and Android (\w+)$ regular expression used to mark the last word

cleaned_tweets <- tweets %>%
select(id_str, source, text, created_at) %>%
  filter(source %in% c("Twitter for iPhone", "Twitter for Android"))  %>% 
  extract(source, "source", "(\\w+)$")
cleaned_tweets

## # A tibble: 21,395 x 4
##     id_str source  text                                      created_at         
##      <dbl> <chr>   <chr>                                     <dttm>             
##  1 2.78e17 iPhone  "Good luck to Bob Kraft, Tom Brady, and  2012-12-11 01:20:01
##  2 4.18e17 Android "Have a happy, successful and healthy Ne 2013-12-31 22:21:51
##  3 4.18e17 Android "When it comes to money, finance and eve 2013-12-31 22:19:28
##  4 4.18e17 Android "Spend your last day of 2013 contemplati 2013-12-31 11:48:59
##  5 4.18e17 Android "The con artists changed the name from G 2013-12-31 00:44:02
##  6 4.18e17 Android "What the hell is going on with GLOBAL W 2013-12-31 00:34:40
##  7 4.17e17 Android "\"@alefx33: Nelson Mandela and @realDon 2013-12-30 03:07:44
##  8 4.17e17 Android "Temperature at record lows in many part 2013-12-29 23:08:10
##  9 4.17e17 Android "In the upcoming New Year we will focus  2013-12-28 22:51:14
## 10 4.17e17 Android "We're coming up on the NEW YEAR-It is r 2013-12-28 22:47:02
## #  with 21,385 more rows
…
